Population Projection Methodology • scpopulation
…
The AGR values for the high projection scenario are calculated in two
steps. First, county AGRs that are lower than the state average are
raised to equal the state average of the RFA projection. Then, all
county AGRs are increased by 10%. For example, the minimum county
population growth rate in the High scenario for vintage 2019 is 1.31%
(1.19% * 1.1 = 1.31%).

pop_rates <- pop3 |>
  dplyr::distinct(Edition, County, Type, T_0, T_1, Pop_0, Pop_1, 
                  Growth_moderate, Growth_hi)

pop_rates

## # A tibble: 188 × 9
##    Edition County    Type      T_0   T_1  Pop_0  Pop_1 Growth_moderate Growth_hi
##    <chr>   <chr>     <chr>   <int> <int>  <dbl>  <dbl>           <dbl>     <dbl>
##  1 2019    ABBEVILLE Estima…  2000  2018  26229  24541              0       1.01
##  2 2019    ABBEVILLE SC RFA…  2019  2035  24410  22195              0       1.01
##  3 2019    AIKEN     Estima…  2000  2018 142742 169401           1481.      1.01
##  4 2019    AIKEN     SC RFA…  2019  2035 170345 180550            638.      1.01
##  5 2019    ALLENDALE Estima…  2000  2018  11193   8903              0       1.01
##  6 2019    ALLENDALE SC RFA…  2019  2035   8725   6160              0       1.01
##  7 2019    ANDERSON  Estima…  2000  2018 166304 200482           1899.      1.01
##  8 2019    ANDERSON  SC RFA…  2019  2035 202520 234420           1994.      1.01
##  9 2019    BAMBERG   Estima…  2000  2018  16680  14275              0       1.01
## 10 2019    BAMBERG   SC RFA…  2019  2035  14030  10425              0       1.01
## # ℹ 178 more rows
…
